%YAML 1.1
%TAG !u! tag:unity3d.com,2011:
--- !u!1 &3565142498991225632
GameObject:
  m_ObjectHideFlags: 0
  m_CorrespondingSourceObject: {fileID: 0}
  m_PrefabInstance: {fileID: 0}
  m_PrefabAsset: {fileID: 0}
  serializedVersion: 6
  m_Component:
  - component: {fileID: 6461840696705098405}
  - component: {fileID: 7220228448785308696}
  m_Layer: 0
  m_Name: Room LRB Templates
  m_TagString: Untagged
  m_Icon: {fileID: 0}
  m_NavMeshLayer: 0
  m_StaticEditorFlags: 0
  m_IsActive: 1
--- !u!4 &6461840696705098405
Transform:
  m_ObjectHideFlags: 0
  m_CorrespondingSourceObject: {fileID: 0}
  m_PrefabInstance: {fileID: 0}
  m_PrefabAsset: {fileID: 0}
  m_GameObject: {fileID: 3565142498991225632}
  serializedVersion: 2
  m_LocalRotation: {x: 0, y: 0, z: 0, w: 1}
  m_LocalPosition: {x: -42.791008, y: -5.3265843, z: -0.20009173}
  m_LocalScale: {x: 1, y: 1, z: 1}
  m_ConstrainProportionsScale: 0
  m_Children: []
  m_Father: {fileID: 0}
  m_LocalEulerAnglesHint: {x: 0, y: 0, z: 0}
--- !u!114 &7220228448785308696
MonoBehaviour:
  m_ObjectHideFlags: 0
  m_CorrespondingSourceObject: {fileID: 0}
  m_PrefabInstance: {fileID: 0}
  m_PrefabAsset: {fileID: 0}
  m_GameObject: {fileID: 3565142498991225632}
  m_Enabled: 1
  m_EditorHideFlags: 0
  m_Script: {fileID: 11500000, guid: 0c4cad81c0c342e4987b8854d8921339, type: 3}
  m_Name: 
  m_EditorClassIdentifier: 
  objects:
  - {fileID: 1790682147924200521, guid: 2e9a23476ee729a4fbf98c79956cf495, type: 3}
  - {fileID: 6954324864289266846, guid: be51277603a5ba64593b1164d162f4a6, type: 3}
